Guess: Bulls: 0 | Cows: 0
Guess: Bulls: 1 | Cows: 0
Guess: Bulls: 1 | Cows: 2
Guess: Bulls: 0 | Cows: 1
Guess: Bulls: 1 | Cows: 0
Guess: Bulls: 1 | Cows: 1
Guess: Bulls: 0 | Cows: 2
Guess: Bulls: 2 | Cows: 1
Guess: Bulls: 0 | Cows: 1
Guess: Bulls: 0 | Cows: 3
Guess: Bulls: 0 | Cows: 2
Guess: Bulls: 1 | Cows: 1
Guess: Bulls: 0 | Cows: 2
Guess: Bulls: 1 | Cows: 1
Guess: Bulls: 0 | Cows: 1
Guess: Bulls: 0 | Cows: 2
Guess: Bulls: 1 | Cows: 1
Guess: Bulls: 0 | Cows: 2
Guess: Bulls: 0 | Cows: 1
Guess: Bulls: 0 | Cows: 2
Guess: Bulls: 0 | Cows: 2
Guess: Bulls: 4 | Cows: 0
